Reproducible research with drake
…
---
class: left, top

.larger[Now, since `office_plan` was ran as part of the slides project, we can access elements from the plan: `readd` to read an object / `loadd` to load into the global environment

]

```r
readd(office)
```

```
## # A tibble: 136 x 32
##    season episode episode_name  andy angela darryl dwight   jim kelly kevin
##     <dbl>   <dbl> <chr>        <int>  <int>  <int>  <int> <int> <int> <int>
##  1      1       1 pilot            0      1      0     29    36     0     1
##  2      1       2 diversity d…     0      4      0     17    25     2     8
##  3      1       3 health care      0      5      0     62    42     0     6
##  4      1       5 basketball       0      3     15     25    21     0     1
##  5      1       6 hot girl         0      3      0     28    55     0     5
##  6      2       1 dundies          0      1      1     32    32     7     1
##  7      2       2 sexual hara…     0      2      9     11    16     0     6
##  8      2       3 office olym…     0      6      0     55    55     0     9
##  9      2       4 fire             0     17      0     65    51     4     5
## 10      2       5 halloween        0     13      0     33    30     3     2
## # … with 126 more rows, and 22 more variables: michael <int>, oscar <int>,
## #   pam <int>, phyllis <int>, ryan <int>, toby <int>, erin <int>, jan <int>,
## #   ken_kwapis <dbl>, greg_daniels <dbl>, b_j_novak <dbl>,
## #   paul_lieberstein <dbl>, mindy_kaling <dbl>, paul_feig <dbl>,
## #   gene_stupnitsky <dbl>, lee_eisenberg <dbl>, jennifer_celotta <dbl>,
## #   randall_einhorn <dbl>, brent_forrester <dbl>, jeffrey_blitz <dbl>,
## #   justin_spitzer <dbl>, imdb_rating <dbl>
```
…
