Plotting manhattan plots and LD matrices together in R | Rene Welch
…
mat_data

## # A tibble: 196 x 6
##    SNP1       SNP2          cor     pos1    pos2 abs_dist
##    <chr>      <chr>       <dbl>    <int>   <int>    <int>
##  1 rs1220400  rs1220400  1.      9997079 9997079        0
##  2 rs1234694  rs1220400  0.952  10003320 9997079     6241
##  3 rs10864454 rs1220400 -0.102  10417853 9997079   420774
##  4 rs12135774 rs1220400 -0.0985 10386506 9997079   389427
##  5 rs3820192  rs1220400 -0.0474 11847772 9997079  1850693
##  6 rs41275494 rs1220400 -0.0489 11894133 9997079  1897054
##  7 rs4240912  rs1220400 -0.0426 10437778 9997079   440699
##  8 rs55741089 rs1220400 -0.0473 11898859 9997079  1901780
##  9 rs55867221 rs1220400 -0.0557 11845222 9997079  1848143
## 10 rs56001051 rs1220400 -0.0670 11838841 9997079  1841762
## # … with 186 more rows
…
